<?xml version="1.0" encoding="UTF-8"?>
<Project>
   <description></description>
   <name>App SecondHand Cucumber</name>
   <tag></tag>
   <UUID>396e9188-8a65-4c5a-b45d-d00a29d5ac2f</UUID>
   <migratedVersion>5.9.0</migratedVersion>
   <pageLoadTimeout>0</pageLoadTimeout>
   <projectFileLocation>D:\Binar\git repo\9900986-13-eh-secondhand-platinum\Mobile\Android Mobile Tests with Katalon Studio.prj</projectFileLocation>
   <sourceContent>
      <sourceFolderList>
         <sourceFolderConfiguration>
            <url>Include/scripts/groovy</url>
         </sourceFolderConfiguration>
      </sourceFolderList>
      <systemFolderList>
         <systemFolderConfiguration>
            <url>Include/scripts/groovy</url>
         </systemFolderConfiguration>
         <systemFolderConfiguration>
            <url>Include/features</url>
         </systemFolderConfiguration>
         <systemFolderConfiguration>
            <url>Include/config</url>
         </systemFolderConfiguration>
      </systemFolderList>
   </sourceContent>
   <timeStampInProperties>true</timeStampInProperties>
   <type>MOBILE</type>
</Project>
