<?xml version="1.0" encoding="UTF-8"?>
<Project>
   <description></description>
   <name>SecondHand Cucumber</name>
   <tag></tag>
   <UUID>3a748064-6099-4a96-b531-5ab678eb02ef</UUID>
   <migratedVersion>5.9.0</migratedVersion>
   <pageLoadTimeout>0</pageLoadTimeout>
   <projectFileLocation>D:\Binar\git repo\9900986-13-eh-secondhand-platinum\demo.prj</projectFileLocation>
   <sourceContent>
      <sourceFolderList>
         <sourceFolderConfiguration>
            <url>Include/scripts/groovy</url>
         </sourceFolderConfiguration>
      </sourceFolderList>
      <systemFolderList>
         <systemFolderConfiguration>
            <url>Include/scripts/groovy</url>
         </systemFolderConfiguration>
         <systemFolderConfiguration>
            <url>Include/features</url>
         </systemFolderConfiguration>
         <systemFolderConfiguration>
            <url>Include/config</url>
         </systemFolderConfiguration>
      </systemFolderList>
   </sourceContent>
   <timeStampInProperties>true</timeStampInProperties>
   <type>WEBUI</type>
</Project>
